Christian Brabandt
Christian Brabandt
Christian Brabandt
Christian Brabandt
Christian Brabandt
Christian Brabandt
Danek Duvall
Dominique Pelle
Ike Devolder
Jiri Sedlak
Ken Takata
Ken Takata
Ken Takata
Ken Takata
Ken Takata
Ken Takata
Ken Takata
Ken Takata
Paul
Paul Ollis
Raymond Ko
Raymond Ko
Simon Ruderich
V. Ondruch
Vit Ondruch
Vit Ondruch
Yukihiro Nakadaira
Yukihiro Nakadaira
ZyX
ZyX
ZyX
ZyX
hint by Danek Duvall
so8res
